DNS set up for windows

c:\windows\system32\drivers\etc\hosts  <- open it in editor

127.0.0.1           www.website1.com
127.0.0.1           www.website3.com
127.0.0.1           www.website2.com


make antivirus is disable for this

DNS set up for Linux
in terminal using root user
$ nano /etc/hosts

127.0.0.1           www.website1.com
127.0.0.1           www.website3.com
127.0.0.1           www.website2.com

ctrl+x and y <- to save file



NOTE: use https://www.website1.com:8443  <- this port number is most important